<mxfile host="app.diagrams.net" agent="Mozilla/5.0 (Windows NT 10.0; Win64; x64) AppleWebKit/537.36 (KHTML, like Gecko) Chrome/129.0.0.0 Safari/537.36" version="24.7.17">
  <diagram name="Page-1" id="MmtaF023TQ6UMYmf-jxp">
    <mxGraphModel dx="1050" dy="618" grid="1" gridSize="10" guides="1" tooltips="1" connect="1" arrows="1" fold="1" page="1" pageScale="1" pageWidth="850" pageHeight="1100" math="0" shadow="0">
      <root>
        <mxCell id="0" />
        <mxCell id="1" parent="0" />
        <mxCell id="OfftemCouChNMV3OVztq-5" value="Yes" style="edgeStyle=orthogonalEdgeStyle;rounded=0;orthogonalLoop=1;jettySize=auto;html=1;entryX=0.5;entryY=0;entryDx=0;entryDy=0;" edge="1" parent="1" source="OfftemCouChNMV3OVztq-1" target="OfftemCouChNMV3OVztq-2">
          <mxGeometry relative="1" as="geometry" />
        </mxCell>
        <mxCell id="OfftemCouChNMV3OVztq-6" value="No" style="edgeStyle=orthogonalEdgeStyle;rounded=0;orthogonalLoop=1;jettySize=auto;html=1;entryX=0.5;entryY=0;entryDx=0;entryDy=0;" edge="1" parent="1" source="OfftemCouChNMV3OVztq-1" target="OfftemCouChNMV3OVztq-4">
          <mxGeometry relative="1" as="geometry" />
        </mxCell>
        <mxCell id="OfftemCouChNMV3OVztq-1" value="Omited stop bellow 9m" style="rounded=1;whiteSpace=wrap;html=1;" vertex="1" parent="1">
          <mxGeometry x="260" y="50" width="160" height="40" as="geometry" />
        </mxCell>
        <mxCell id="OfftemCouChNMV3OVztq-2" value="Return to 1st stop&lt;br&gt;For stops ≥ 9m, x 1.5" style="rounded=1;whiteSpace=wrap;html=1;" vertex="1" parent="1">
          <mxGeometry x="120" y="150" width="160" height="50" as="geometry" />
        </mxCell>
        <mxCell id="OfftemCouChNMV3OVztq-3" value="Return to omited stop&lt;br&gt;Increase stop time by 1min&lt;br&gt;Follow schedule" style="rounded=1;whiteSpace=wrap;html=1;" vertex="1" parent="1">
          <mxGeometry x="280" y="240" width="160" height="60" as="geometry" />
        </mxCell>
        <mxCell id="OfftemCouChNMV3OVztq-8" value="Yes" style="edgeStyle=orthogonalEdgeStyle;rounded=0;orthogonalLoop=1;jettySize=auto;html=1;entryX=0.5;entryY=0;entryDx=0;entryDy=0;" edge="1" parent="1" source="OfftemCouChNMV3OVztq-4" target="OfftemCouChNMV3OVztq-3">
          <mxGeometry relative="1" as="geometry" />
        </mxCell>
        <mxCell id="OfftemCouChNMV3OVztq-9" value="No" style="edgeStyle=orthogonalEdgeStyle;rounded=0;orthogonalLoop=1;jettySize=auto;html=1;entryX=0.5;entryY=0;entryDx=0;entryDy=0;" edge="1" parent="1" source="OfftemCouChNMV3OVztq-4" target="OfftemCouChNMV3OVztq-7">
          <mxGeometry relative="1" as="geometry" />
        </mxCell>
        <mxCell id="OfftemCouChNMV3OVztq-4" value="Less than 1min ?" style="rounded=1;whiteSpace=wrap;html=1;" vertex="1" parent="1">
          <mxGeometry x="400" y="150" width="160" height="50" as="geometry" />
        </mxCell>
        <mxCell id="OfftemCouChNMV3OVztq-7" value="&lt;div&gt;Return to omited stop&lt;br&gt;Multiply stops by 1.5&lt;/div&gt;" style="rounded=1;whiteSpace=wrap;html=1;" vertex="1" parent="1">
          <mxGeometry x="520" y="240" width="160" height="60" as="geometry" />
        </mxCell>
      </root>
    </mxGraphModel>
  </diagram>
</mxfile>
